{
  "type": "service_account",
  "project_id": "bookr-b43f5",
  "private_key_id": "54347101ed2a10c0cfc2e5f95d5400942db995de",
  "private_key": "-----BEGIN PRIVATE KEY-----\nMIIEvAIBADANBgkqhkiG9w0BAQEFAASCBKYwggSiAgEAAoIBAQCZ5phWiLS070xs\n5GQpciiCfoESXW4eU7WRiDifEKWmzXwGkfmeEd2Ksms1XuNqJHBuzwvg1mFYUpOV\nI0QA47A8kVRTsvnI6Ls6+FAPs61R0zWL0OEh9ZV6ZnTIdaGXQRjLFy332IEfCYSl\nV5RhAHEN5Ok8+M9GoM8D6rAjCYbZ6TcoPL3Vg9vx3NXuG+Gg2JgcQqaMkzvZeT7o\nemSavxs2EpVPSFYfSNqZPxqm/aOz0yK478b//8vRzQReK4UbI84APGc7AN0adVs+\nLDxFlJNiyMUWC8Qb27TJrFrOZ/EhrZGP/oNujSxDP0XQUzj9dY4hpLw0wNemFqa3\nCC9qSy9TAgMBAAECggEAVMV61fd5KkzBmR14uoeiHrcV24rRNC1BzwbswVlHFYkM\nLwZLK7GFiXdbrEs3Euk9cRvk3BTaC+94UWbad27zTXlzrKLiCbOAJixO1UdQSckA\nLqKAz9bZXlF/NEfvGUSHJp7++A0umm0Avp5uIbw/ibq0apxWd/3t6adlG/eMawy7\nZJTQiKptIIPMi7nfMEdcw332U179B0S+kX1SkvS6OTdNX8aNcu8jhouZPjaTQQiz\n27eJGdXbHEqGnnrwd1DCH5ExTOwB5zsASshzaLB9xMgGTN8blRZ8gYxx1fRvO2An\nb8MuEoZ0xh/9FofKKmLD3EFoedwYSX+aXVGog+iuGQKBgQDHR0+0eSfN6H7AKi4T\nQMx1CSnlmX+l7Mi9f3Mk9ezpH0uz5bvdTW8WuqToXzAiMjcqa0DyGLw6bHGMo/Dk\nyO7BhTFG4ASvtlMqZonEM6+QDRd95DNrK5ghOKeOi1OLRQcOCeYJ4dxwdAvZHgLC\nhtPqeM8BNP6BCr9iQYi3S0nIrwKBgQDFtMWn8nCJcCdhQkb0k50ad2cA+i/p7hEd\nm7+PH+ah5UuEjeEqWs6Fiystw7OYz+TSow5Xva3WCqpQFddvsTDOCzaw6sPoGOuu\nVHLj2rG3VtB+qn+0x9O+oGEoAqv4/i1FFTFcRTl2/tDM0dK83h6n0KcBeTv+ax5k\nyHg3NvWknQKBgCEA+HxlTGhXxxZAZh0eMD555Ax4naF3U8++me1XJYN+gWUr+S8v\nseRLySALE8e2FVjbJohx/EqYxz2JsU3S0WgPjRe15lDLm358OPjbronnASsCblmj\ngLCP14BOJun75q02ini8hWvCbGvrAn4BInvEwlPq2PO6OfQl8mSY/YFVAoGAKcsj\nFXO8snERAhBeq4kg5t1i2uQIiO0YlSe9gOX/fS3ZnvXXKXr0uWpIAG6kYqNf/d8W\nQxoHy32Jr1BOsH/Gj2fzccbPDxtlhv63Is+yTc1+Wah1QqQTcPK6VxjpfcNNkpL+\nUkEX+r23KfUZFW/nDxael0MnmYrPbAKs1w85MkkCgYBQog2Tvl0nIKVIEmr5aEwB\nEJEY7DXuWOF2eSqcgptZSFAbIGaL7RKvY7/pIQRFPCmbmKZfKrSC5ktO5kTURuwN\nxyP+jUDUJjOh7gK0vnliXGDPIByyEw+0kmDVWUm6ySDi043q5Qj2AK8gzgeelRL+\niPjvfyAuoH04igbAAugGeA==\n-----END PRIVATE KEY-----\n",
  "client_email": "firebase-adminsdk-jjnrg@bookr-b43f5.iam.gserviceaccount.com",
  "client_id": "112641475125863955364",
  "auth_uri": "https://accounts.google.com/o/oauth2/auth",
  "token_uri": "https://accounts.google.com/o/oauth2/token",
  "auth_provider_x509_cert_url": "https://www.googleapis.com/oauth2/v1/certs",
  "client_x509_cert_url": "https://www.googleapis.com/robot/v1/metadata/x509/firebase-adminsdk-jjnrg%40bookr-b43f5.iam.gserviceaccount.com"
}